…
    #> # A tibble: 330 x 10
    #>    symbol n_muts  rmaf rna_purity dna_purity rna_dp dna_dp   vaf    z1    z2
    #>    <chr>   <int> <dbl>      <dbl>      <dbl>  <int>  <int> <dbl> <dbl> <dbl>
    #>  1 gene1     100 0.847        0.9        0.8     28    241 0.097  4.22 10.1 
    #>  2 gene1     100 0.85         0.9        0.8    328    433 0.063 14.6  23.8 
    #>  3 gene1     100 0.822        0.9        0.8     77    238 0.407  6.56  6.32
    #>  4 gene1     100 0.833        0.9        0.8    415    151 0.302 15.7  13.9 
    #>  5 gene1     100 0.879        0.9        0.8    473    133 0.119 18.8  20.9 
    #>  6 gene1     100 0.848        0.9        0.8    461    359 0.421 17.2  13.8 
    #>  7 gene1     100 0.884        0.9        0.8    208    231 0.589 12.6   7.26
    #>  8 gene1     100 0.871        0.9        0.8    112    307 0.373  8.96  9.28
    #>  9 gene1     100 0.819        0.9        0.8    431    357 0.401 15.4  12.8 
    #> 10 gene1     100 0.895        0.9        0.8    448    129 0.279 18.9  18.1 
    #> # … with 320 more rows
